%
M48
M72
T01C0.0200
T02C0.0240
T03C0.0315
T04C0.0320
T05C0.0400
T06C0.0787
T07C0.1300
%
T01
X5621Y3897
X9171Y4697
X9271Y5197
X9271Y6847
X9121Y7297
X7121Y8847
X10971Y4697
X11621Y10997
X11621Y11847
X13121Y13147
T02
X8721Y7897
X9171Y6347
X9121Y5697
X8921Y3847
X7521Y6047
X5921Y7897
X5121Y7447
X5121Y6847
X5121Y5847
X5121Y4847
X3121Y5847
X5821Y15347
X3871Y16097
T03
X6227Y18547
X7015Y18547
X11621Y17347
T04
X8271Y16097
X8271Y15097
X10621Y12297
X10621Y10297
T05
X2521Y3347
X2621Y4347
X2521Y5347
X2621Y6347
X2521Y7347
X2621Y8347
X2671Y10397
X3571Y10397
X3671Y11397
X3571Y12397
X2671Y12397
X2571Y11397
X2621Y14347
X2621Y15347
X2621Y16347
X2621Y17347
X2621Y18347
X11621Y7347
X11721Y8347
X11721Y6347
X11621Y5347
X11721Y4347
X11621Y3347
X8621Y2797
X7621Y2897
X6621Y2797
X5621Y2897
T06
X9021Y17347
X14221Y17347
T07
X14371Y13097
X14371Y2097
M30
